{
  "core": {
    "base": "/core",
    "auto": true,
    "port": 8088,
    "redirectUrl": "https://dev-platform.konfio.mx",
    "options": {
      "Content-Type": "application/json, text/plain, */*",
      "Access-Control-Allow-Methods": "*",
      "Access-Control-Request-Method": "POST, GET, OPTIONS, PUT, DELETE",
      "Access-Control-Allow-Headers": "Content-Type, Content-Length, Accept-Encoding, X-Requested-With, X-CSRF-Token, Authorization, cache-control, konfio-session, platform-origin",
      "Access-Control-Allow-Credentials": "true"
    },
    "headers": {
      "Content-Type": "application/json"
    },
    "routes": {
      "/documents/pdf-factory/{template}": {
        "enabled": true,
        "redirect": {
          "get": {
            "url": "http://localhost",
            "headers": {
              "konfio-session": "{\"user_admin_id\": 419, \"display_name\": \"Saúl Fernández\",\"role\":\"user_admin\"}"
            }
          }
        }
      },
      "/collections": {
        "enabled": true,
        "methods": ["get"],
        "mocks": {
          "get": {
            "status": 200,
            "data": {
              "message": "My mock response"
            }
          }
        }
      }
    }
  },
  "auth": {
    "base": "/auth",
    "auto": true,
    "port": 8089,
    "redirectUrl": "https://dev-platform.konfio.mx",
    "options": {
      "Content-Type": "application/json, text/plain, */*",
      "Access-Control-Allow-Methods": "*",
      "Access-Control-Request-Method": "POST, GET, OPTIONS, PUT, DELETE",
      "Access-Control-Allow-Headers": "Content-Type, Content-Length, Accept-Encoding, X-Requested-With, X-CSRF-Token, Authorization, cache-control, konfio-session, platform-origin",
      "Access-Control-Allow-Credentials": "true"
    },
    "headers": {
      "Content-Type": "application/json"
    }
  },
  "kanto": {
    "base": "/kanto",
    "port": 8081
  }
}